%YAML 1.1
%TAG !u! tag:unity3d.com,2011:
--- !u!74 &7400000
AnimationClip:
  m_ObjectHideFlags: 0
  m_CorrespondingSourceObject: {fileID: 0}
  m_PrefabInstance: {fileID: 0}
  m_PrefabAsset: {fileID: 0}
  m_Name: Player_idle
  serializedVersion: 6
  m_Legacy: 0
  m_Compressed: 0
  m_UseHighQualityCurve: 1
  m_RotationCurves: []
  m_CompressedRotationCurves: []
  m_EulerCurves: []
  m_PositionCurves: []
  m_ScaleCurves: []
  m_FloatCurves: []
  m_PPtrCurves:
  - curve:
    - time: 0
      value: {fileID: -2917795296415379658, guid: 72d60f04ffa7f8e4e8768e1adbb62cc4,
        type: 3}
    - time: 0.033333335
      value: {fileID: -7724441180785323211, guid: 72d60f04ffa7f8e4e8768e1adbb62cc4,
        type: 3}
    - time: 0.06666667
      value: {fileID: -432137160559841275, guid: 72d60f04ffa7f8e4e8768e1adbb62cc4,
        type: 3}
    - time: 0.1
      value: {fileID: -1896584886585014848, guid: 72d60f04ffa7f8e4e8768e1adbb62cc4,
        type: 3}
    - time: 0.13333334
      value: {fileID: -9121561885224084992, guid: 72d60f04ffa7f8e4e8768e1adbb62cc4,
        type: 3}
    - time: 0.16666667
      value: {fileID: 4739629609466142924, guid: 72d60f04ffa7f8e4e8768e1adbb62cc4,
        type: 3}
    - time: 0.2
      value: {fileID: 7285677226599639539, guid: 72d60f04ffa7f8e4e8768e1adbb62cc4,
        type: 3}
    - time: 0.23333333
      value: {fileID: -4229862747956520799, guid: 72d60f04ffa7f8e4e8768e1adbb62cc4,
        type: 3}
    - time: 0.26666668
      value: {fileID: 6126637351884553813, guid: 72d60f04ffa7f8e4e8768e1adbb62cc4,
        type: 3}
    - time: 0.3
      value: {fileID: 5872362380342711299, guid: 72d60f04ffa7f8e4e8768e1adbb62cc4,
        type: 3}
    - time: 0.33333334
      value: {fileID: 3504603016654317152, guid: 72d60f04ffa7f8e4e8768e1adbb62cc4,
        type: 3}
    - time: 0.36666667
      value: {fileID: -6274084380954221480, guid: 72d60f04ffa7f8e4e8768e1adbb62cc4,
        type: 3}
    - time: 0.4
      value: {fileID: -7644735166514938141, guid: 72d60f04ffa7f8e4e8768e1adbb62cc4,
        type: 3}
    - time: 0.43333334
      value: {fileID: 1841651431977976419, guid: 72d60f04ffa7f8e4e8768e1adbb62cc4,
        type: 3}
    - time: 0.46666667
      value: {fileID: 2998292787957150056, guid: 72d60f04ffa7f8e4e8768e1adbb62cc4,
        type: 3}
    - time: 0.5
      value: {fileID: -7503376511659318608, guid: 72d60f04ffa7f8e4e8768e1adbb62cc4,
        type: 3}
    - time: 0.53333336
      value: {fileID: -4130129521370352413, guid: 72d60f04ffa7f8e4e8768e1adbb62cc4,
        type: 3}
    - time: 0.56666666
      value: {fileID: 7021563365207699029, guid: 72d60f04ffa7f8e4e8768e1adbb62cc4,
        type: 3}
    - time: 0.6
      value: {fileID: 8277402110068664643, guid: 72d60f04ffa7f8e4e8768e1adbb62cc4,
        type: 3}
    - time: 0.6333333
      value: {fileID: -4323473711711980147, guid: 72d60f04ffa7f8e4e8768e1adbb62cc4,
        type: 3}
    - time: 0.6666667
      value: {fileID: -144326048521645690, guid: 72d60f04ffa7f8e4e8768e1adbb62cc4,
        type: 3}
    - time: 0.7
      value: {fileID: -8175150523052479860, guid: 72d60f04ffa7f8e4e8768e1adbb62cc4,
        type: 3}
    - time: 0.73333335
      value: {fileID: -3747982458441358615, guid: 72d60f04ffa7f8e4e8768e1adbb62cc4,
        type: 3}
    - time: 0.76666665
      value: {fileID: 4495506858301454288, guid: 72d60f04ffa7f8e4e8768e1adbb62cc4,
        type: 3}
    - time: 0.8
      value: {fileID: -2373365002988987884, guid: 72d60f04ffa7f8e4e8768e1adbb62cc4,
        type: 3}
    - time: 0.8333333
      value: {fileID: -397141551904719070, guid: 72d60f04ffa7f8e4e8768e1adbb62cc4,
        type: 3}
    - time: 0.8666667
      value: {fileID: -8587766577946161982, guid: 72d60f04ffa7f8e4e8768e1adbb62cc4,
        type: 3}
    - time: 0.9
      value: {fileID: -5814326310514512421, guid: 72d60f04ffa7f8e4e8768e1adbb62cc4,
        type: 3}
    - time: 0.93333334
      value: {fileID: -9065141254012905456, guid: 72d60f04ffa7f8e4e8768e1adbb62cc4,
        type: 3}
    - time: 0.96666664
      value: {fileID: 400531839937892657, guid: 72d60f04ffa7f8e4e8768e1adbb62cc4,
        type: 3}
    - time: 1
      value: {fileID: -2155207226566905098, guid: 72d60f04ffa7f8e4e8768e1adbb62cc4,
        type: 3}
    attribute: m_Sprite
    path: Appearance/Sprite
    classID: 212
    script: {fileID: 0}
  m_SampleRate: 30
  m_WrapMode: 0
  m_Bounds:
    m_Center: {x: 0, y: 0, z: 0}
    m_Extent: {x: 0, y: 0, z: 0}
  m_ClipBindingConstant:
    genericBindings:
    - serializedVersion: 2
      path: 3225995184
      attribute: 0
      script: {fileID: 0}
      typeID: 212
      customType: 23
      isPPtrCurve: 1
    pptrCurveMapping:
    - {fileID: -2917795296415379658, guid: 72d60f04ffa7f8e4e8768e1adbb62cc4, type: 3}
    - {fileID: -7724441180785323211, guid: 72d60f04ffa7f8e4e8768e1adbb62cc4, type: 3}
    - {fileID: -432137160559841275, guid: 72d60f04ffa7f8e4e8768e1adbb62cc4, type: 3}
    - {fileID: -1896584886585014848, guid: 72d60f04ffa7f8e4e8768e1adbb62cc4, type: 3}
    - {fileID: -9121561885224084992, guid: 72d60f04ffa7f8e4e8768e1adbb62cc4, type: 3}
    - {fileID: 4739629609466142924, guid: 72d60f04ffa7f8e4e8768e1adbb62cc4, type: 3}
    - {fileID: 7285677226599639539, guid: 72d60f04ffa7f8e4e8768e1adbb62cc4, type: 3}
    - {fileID: -4229862747956520799, guid: 72d60f04ffa7f8e4e8768e1adbb62cc4, type: 3}
    - {fileID: 6126637351884553813, guid: 72d60f04ffa7f8e4e8768e1adbb62cc4, type: 3}
    - {fileID: 5872362380342711299, guid: 72d60f04ffa7f8e4e8768e1adbb62cc4, type: 3}
    - {fileID: 3504603016654317152, guid: 72d60f04ffa7f8e4e8768e1adbb62cc4, type: 3}
    - {fileID: -6274084380954221480, guid: 72d60f04ffa7f8e4e8768e1adbb62cc4, type: 3}
    - {fileID: -7644735166514938141, guid: 72d60f04ffa7f8e4e8768e1adbb62cc4, type: 3}
    - {fileID: 1841651431977976419, guid: 72d60f04ffa7f8e4e8768e1adbb62cc4, type: 3}
    - {fileID: 2998292787957150056, guid: 72d60f04ffa7f8e4e8768e1adbb62cc4, type: 3}
    - {fileID: -7503376511659318608, guid: 72d60f04ffa7f8e4e8768e1adbb62cc4, type: 3}
    - {fileID: -4130129521370352413, guid: 72d60f04ffa7f8e4e8768e1adbb62cc4, type: 3}
    - {fileID: 7021563365207699029, guid: 72d60f04ffa7f8e4e8768e1adbb62cc4, type: 3}
    - {fileID: 8277402110068664643, guid: 72d60f04ffa7f8e4e8768e1adbb62cc4, type: 3}
    - {fileID: -4323473711711980147, guid: 72d60f04ffa7f8e4e8768e1adbb62cc4, type: 3}
    - {fileID: -144326048521645690, guid: 72d60f04ffa7f8e4e8768e1adbb62cc4, type: 3}
    - {fileID: -8175150523052479860, guid: 72d60f04ffa7f8e4e8768e1adbb62cc4, type: 3}
    - {fileID: -3747982458441358615, guid: 72d60f04ffa7f8e4e8768e1adbb62cc4, type: 3}
    - {fileID: 4495506858301454288, guid: 72d60f04ffa7f8e4e8768e1adbb62cc4, type: 3}
    - {fileID: -2373365002988987884, guid: 72d60f04ffa7f8e4e8768e1adbb62cc4, type: 3}
    - {fileID: -397141551904719070, guid: 72d60f04ffa7f8e4e8768e1adbb62cc4, type: 3}
    - {fileID: -8587766577946161982, guid: 72d60f04ffa7f8e4e8768e1adbb62cc4, type: 3}
    - {fileID: -5814326310514512421, guid: 72d60f04ffa7f8e4e8768e1adbb62cc4, type: 3}
    - {fileID: -9065141254012905456, guid: 72d60f04ffa7f8e4e8768e1adbb62cc4, type: 3}
    - {fileID: 400531839937892657, guid: 72d60f04ffa7f8e4e8768e1adbb62cc4, type: 3}
    - {fileID: -2155207226566905098, guid: 72d60f04ffa7f8e4e8768e1adbb62cc4, type: 3}
  m_AnimationClipSettings:
    serializedVersion: 2
    m_AdditiveReferencePoseClip: {fileID: 0}
    m_AdditiveReferencePoseTime: 0
    m_StartTime: 0
    m_StopTime: 1.0333333
    m_OrientationOffsetY: 0
    m_Level: 0
    m_CycleOffset: 0
    m_HasAdditiveReferencePose: 0
    m_LoopTime: 1
    m_LoopBlend: 0
    m_LoopBlendOrientation: 0
    m_LoopBlendPositionY: 0
    m_LoopBlendPositionXZ: 0
    m_KeepOriginalOrientation: 0
    m_KeepOriginalPositionY: 1
    m_KeepOriginalPositionXZ: 0
    m_HeightFromFeet: 0
    m_Mirror: 0
  m_EditorCurves: []
  m_EulerEditorCurves: []
  m_HasGenericRootTransform: 0
  m_HasMotionFloatCurves: 0
  m_Events: []
