%YAML 1.1
%TAG !u! tag:unity3d.com,2011:
--- !u!74 &7400000
AnimationClip:
  m_ObjectHideFlags: 0
  m_CorrespondingSourceObject: {fileID: 0}
  m_PrefabInstance: {fileID: 0}
  m_PrefabAsset: {fileID: 0}
  m_Name: Player_Falling
  serializedVersion: 6
  m_Legacy: 0
  m_Compressed: 0
  m_UseHighQualityCurve: 1
  m_RotationCurves: []
  m_CompressedRotationCurves: []
  m_EulerCurves: []
  m_PositionCurves: []
  m_ScaleCurves: []
  m_FloatCurves: []
  m_PPtrCurves:
  - curve:
    - time: 0
      value: {fileID: -1536576864254105657, guid: ad1d040f937b8984cbecac142ddb7300,
        type: 3}
    - time: 0.016666668
      value: {fileID: -8349979391579755680, guid: ad1d040f937b8984cbecac142ddb7300,
        type: 3}
    - time: 0.033333335
      value: {fileID: 4992672540919242882, guid: ad1d040f937b8984cbecac142ddb7300,
        type: 3}
    - time: 0.05
      value: {fileID: 5758117114796064950, guid: ad1d040f937b8984cbecac142ddb7300,
        type: 3}
    - time: 0.06666667
      value: {fileID: -2311417617023986787, guid: ad1d040f937b8984cbecac142ddb7300,
        type: 3}
    - time: 0.083333336
      value: {fileID: 8206373584341156833, guid: ad1d040f937b8984cbecac142ddb7300,
        type: 3}
    - time: 0.1
      value: {fileID: -6590453716529877992, guid: ad1d040f937b8984cbecac142ddb7300,
        type: 3}
    - time: 0.11666667
      value: {fileID: 4687391980009695881, guid: ad1d040f937b8984cbecac142ddb7300,
        type: 3}
    - time: 0.13333334
      value: {fileID: -4251914062659933381, guid: ad1d040f937b8984cbecac142ddb7300,
        type: 3}
    - time: 0.15
      value: {fileID: -4457960738766989007, guid: ad1d040f937b8984cbecac142ddb7300,
        type: 3}
    - time: 0.16666667
      value: {fileID: -2565591833510898186, guid: ad1d040f937b8984cbecac142ddb7300,
        type: 3}
    - time: 0.18333334
      value: {fileID: -5395591736986953487, guid: ad1d040f937b8984cbecac142ddb7300,
        type: 3}
    - time: 0.2
      value: {fileID: 763860922261066122, guid: ad1d040f937b8984cbecac142ddb7300,
        type: 3}
    - time: 0.21666667
      value: {fileID: -2491886306122144933, guid: ad1d040f937b8984cbecac142ddb7300,
        type: 3}
    - time: 0.23333333
      value: {fileID: -4304713836901367419, guid: ad1d040f937b8984cbecac142ddb7300,
        type: 3}
    - time: 0.25
      value: {fileID: 7491183723906177659, guid: ad1d040f937b8984cbecac142ddb7300,
        type: 3}
    - time: 0.26666668
      value: {fileID: 928102865628096611, guid: ad1d040f937b8984cbecac142ddb7300,
        type: 3}
    - time: 0.28333333
      value: {fileID: 2868902095433425764, guid: ad1d040f937b8984cbecac142ddb7300,
        type: 3}
    - time: 0.3
      value: {fileID: 8323045372025827775, guid: ad1d040f937b8984cbecac142ddb7300,
        type: 3}
    - time: 0.31666666
      value: {fileID: 3487484676312723018, guid: ad1d040f937b8984cbecac142ddb7300,
        type: 3}
    - time: 0.33333334
      value: {fileID: 2028352135070445934, guid: ad1d040f937b8984cbecac142ddb7300,
        type: 3}
    - time: 0.35
      value: {fileID: -7867804316048326714, guid: ad1d040f937b8984cbecac142ddb7300,
        type: 3}
    - time: 0.36666667
      value: {fileID: 2531528936587804127, guid: ad1d040f937b8984cbecac142ddb7300,
        type: 3}
    - time: 0.38333333
      value: {fileID: -2233144919299030576, guid: ad1d040f937b8984cbecac142ddb7300,
        type: 3}
    - time: 0.4
      value: {fileID: 1540010323584956176, guid: ad1d040f937b8984cbecac142ddb7300,
        type: 3}
    - time: 0.41666666
      value: {fileID: -5818684052564617664, guid: ad1d040f937b8984cbecac142ddb7300,
        type: 3}
    - time: 0.43333334
      value: {fileID: 1027265490934521188, guid: ad1d040f937b8984cbecac142ddb7300,
        type: 3}
    - time: 0.45
      value: {fileID: 1769187180527609916, guid: ad1d040f937b8984cbecac142ddb7300,
        type: 3}
    - time: 0.46666667
      value: {fileID: -4836460969827232827, guid: ad1d040f937b8984cbecac142ddb7300,
        type: 3}
    - time: 0.48333332
      value: {fileID: -6849993608366286026, guid: ad1d040f937b8984cbecac142ddb7300,
        type: 3}
    - time: 0.5
      value: {fileID: -2081579781722226418, guid: ad1d040f937b8984cbecac142ddb7300,
        type: 3}
    - time: 0.51666665
      value: {fileID: -3788098194901177425, guid: ad1d040f937b8984cbecac142ddb7300,
        type: 3}
    - time: 0.53333336
      value: {fileID: 7884082161648748007, guid: ad1d040f937b8984cbecac142ddb7300,
        type: 3}
    - time: 0.55
      value: {fileID: -3651589686663878616, guid: ad1d040f937b8984cbecac142ddb7300,
        type: 3}
    - time: 0.56666666
      value: {fileID: 8638201179686166267, guid: ad1d040f937b8984cbecac142ddb7300,
        type: 3}
    - time: 0.5833333
      value: {fileID: -2763502773654132390, guid: ad1d040f937b8984cbecac142ddb7300,
        type: 3}
    - time: 0.6
      value: {fileID: -4917373101196027545, guid: ad1d040f937b8984cbecac142ddb7300,
        type: 3}
    - time: 0.6166667
      value: {fileID: 3300849461710355071, guid: ad1d040f937b8984cbecac142ddb7300,
        type: 3}
    - time: 0.6333333
      value: {fileID: -1735839112250966479, guid: ad1d040f937b8984cbecac142ddb7300,
        type: 3}
    - time: 0.65
      value: {fileID: -6436367564200688298, guid: ad1d040f937b8984cbecac142ddb7300,
        type: 3}
    - time: 0.6666667
      value: {fileID: -463832984154830718, guid: ad1d040f937b8984cbecac142ddb7300,
        type: 3}
    - time: 0.68333334
      value: {fileID: -317455197237778206, guid: ad1d040f937b8984cbecac142ddb7300,
        type: 3}
    - time: 0.7
      value: {fileID: -1536084400904763946, guid: ad1d040f937b8984cbecac142ddb7300,
        type: 3}
    - time: 0.71666664
      value: {fileID: 7798348306952965416, guid: ad1d040f937b8984cbecac142ddb7300,
        type: 3}
    - time: 0.73333335
      value: {fileID: -1376257105584381933, guid: ad1d040f937b8984cbecac142ddb7300,
        type: 3}
    - time: 0.75
      value: {fileID: 3702255940051908266, guid: ad1d040f937b8984cbecac142ddb7300,
        type: 3}
    - time: 0.76666665
      value: {fileID: -3120498791722017667, guid: ad1d040f937b8984cbecac142ddb7300,
        type: 3}
    - time: 0.78333336
      value: {fileID: -7584534754098632085, guid: ad1d040f937b8984cbecac142ddb7300,
        type: 3}
    - time: 0.8
      value: {fileID: 2230645490791975381, guid: ad1d040f937b8984cbecac142ddb7300,
        type: 3}
    - time: 0.81666666
      value: {fileID: 3947009726957474301, guid: ad1d040f937b8984cbecac142ddb7300,
        type: 3}
    - time: 0.8333333
      value: {fileID: -1614731743966086676, guid: ad1d040f937b8984cbecac142ddb7300,
        type: 3}
    - time: 0.85
      value: {fileID: 9149847445611348449, guid: ad1d040f937b8984cbecac142ddb7300,
        type: 3}
    - time: 0.8666667
      value: {fileID: 7113133359714327990, guid: ad1d040f937b8984cbecac142ddb7300,
        type: 3}
    - time: 0.8833333
      value: {fileID: 4930980319662283063, guid: ad1d040f937b8984cbecac142ddb7300,
        type: 3}
    - time: 0.9
      value: {fileID: -3069568792035871964, guid: ad1d040f937b8984cbecac142ddb7300,
        type: 3}
    - time: 0.9166667
      value: {fileID: 7878981436587209390, guid: ad1d040f937b8984cbecac142ddb7300,
        type: 3}
    - time: 0.93333334
      value: {fileID: -8021762582194679362, guid: ad1d040f937b8984cbecac142ddb7300,
        type: 3}
    - time: 0.95
      value: {fileID: 1763048661268639405, guid: ad1d040f937b8984cbecac142ddb7300,
        type: 3}
    - time: 0.96666664
      value: {fileID: -7559626768642729832, guid: ad1d040f937b8984cbecac142ddb7300,
        type: 3}
    - time: 0.98333335
      value: {fileID: 5098208663929958539, guid: ad1d040f937b8984cbecac142ddb7300,
        type: 3}
    - time: 1
      value: {fileID: 6972182840375177057, guid: ad1d040f937b8984cbecac142ddb7300,
        type: 3}
    - time: 1.0166667
      value: {fileID: 820173302540569007, guid: ad1d040f937b8984cbecac142ddb7300,
        type: 3}
    - time: 1.0333333
      value: {fileID: -5800585907070496159, guid: ad1d040f937b8984cbecac142ddb7300,
        type: 3}
    - time: 1.05
      value: {fileID: 7152646785158034740, guid: ad1d040f937b8984cbecac142ddb7300,
        type: 3}
    - time: 1.0666667
      value: {fileID: -1396700373012904214, guid: ad1d040f937b8984cbecac142ddb7300,
        type: 3}
    - time: 1.0833334
      value: {fileID: 6128841906736936351, guid: ad1d040f937b8984cbecac142ddb7300,
        type: 3}
    - time: 1.1
      value: {fileID: -1790396644341678608, guid: ad1d040f937b8984cbecac142ddb7300,
        type: 3}
    - time: 1.1166667
      value: {fileID: 5744863775309432465, guid: ad1d040f937b8984cbecac142ddb7300,
        type: 3}
    - time: 1.1333333
      value: {fileID: -3484428880423432894, guid: ad1d040f937b8984cbecac142ddb7300,
        type: 3}
    - time: 1.15
      value: {fileID: -931420011505553807, guid: ad1d040f937b8984cbecac142ddb7300,
        type: 3}
    - time: 1.1666666
      value: {fileID: 5566835953831219381, guid: ad1d040f937b8984cbecac142ddb7300,
        type: 3}
    - time: 1.1833333
      value: {fileID: 6509494429657373718, guid: ad1d040f937b8984cbecac142ddb7300,
        type: 3}
    - time: 1.2
      value: {fileID: -6253060255353059259, guid: ad1d040f937b8984cbecac142ddb7300,
        type: 3}
    - time: 1.2166667
      value: {fileID: -4451226456483231120, guid: ad1d040f937b8984cbecac142ddb7300,
        type: 3}
    - time: 1.2333333
      value: {fileID: -1515873494723179947, guid: ad1d040f937b8984cbecac142ddb7300,
        type: 3}
    - time: 1.25
      value: {fileID: 1014462059510638684, guid: ad1d040f937b8984cbecac142ddb7300,
        type: 3}
    - time: 1.2666667
      value: {fileID: -6000597321337358333, guid: ad1d040f937b8984cbecac142ddb7300,
        type: 3}
    - time: 1.2833333
      value: {fileID: -5134041248031811181, guid: ad1d040f937b8984cbecac142ddb7300,
        type: 3}
    - time: 1.3
      value: {fileID: -6708828866431440295, guid: ad1d040f937b8984cbecac142ddb7300,
        type: 3}
    - time: 1.3166667
      value: {fileID: -4494547935845096070, guid: ad1d040f937b8984cbecac142ddb7300,
        type: 3}
    - time: 1.3333334
      value: {fileID: 4793801539703744367, guid: ad1d040f937b8984cbecac142ddb7300,
        type: 3}
    - time: 1.35
      value: {fileID: -260723140416701129, guid: ad1d040f937b8984cbecac142ddb7300,
        type: 3}
    - time: 1.3666667
      value: {fileID: -4220534113734516875, guid: ad1d040f937b8984cbecac142ddb7300,
        type: 3}
    - time: 1.3833333
      value: {fileID: -4138078387662597003, guid: ad1d040f937b8984cbecac142ddb7300,
        type: 3}
    - time: 1.4
      value: {fileID: -2963161722775915504, guid: ad1d040f937b8984cbecac142ddb7300,
        type: 3}
    - time: 1.4166666
      value: {fileID: -4498623733859934575, guid: ad1d040f937b8984cbecac142ddb7300,
        type: 3}
    - time: 1.4333333
      value: {fileID: -1811281927267532902, guid: ad1d040f937b8984cbecac142ddb7300,
        type: 3}
    - time: 1.45
      value: {fileID: -6699556920225872904, guid: ad1d040f937b8984cbecac142ddb7300,
        type: 3}
    - time: 1.4666667
      value: {fileID: -824414076109246603, guid: ad1d040f937b8984cbecac142ddb7300,
        type: 3}
    - time: 1.4833333
      value: {fileID: -780921418207060580, guid: ad1d040f937b8984cbecac142ddb7300,
        type: 3}
    - time: 1.5
      value: {fileID: 697473421054986616, guid: ad1d040f937b8984cbecac142ddb7300,
        type: 3}
    - time: 1.5166667
      value: {fileID: 5859413171882676568, guid: ad1d040f937b8984cbecac142ddb7300,
        type: 3}
    - time: 1.5333333
      value: {fileID: 3428137845319142651, guid: ad1d040f937b8984cbecac142ddb7300,
        type: 3}
    - time: 1.55
      value: {fileID: -2725926805485182438, guid: ad1d040f937b8984cbecac142ddb7300,
        type: 3}
    - time: 1.5666667
      value: {fileID: -2221380797379882735, guid: ad1d040f937b8984cbecac142ddb7300,
        type: 3}
    - time: 1.5833334
      value: {fileID: -3608764419350047599, guid: ad1d040f937b8984cbecac142ddb7300,
        type: 3}
    - time: 1.6
      value: {fileID: 4359264058054050698, guid: ad1d040f937b8984cbecac142ddb7300,
        type: 3}
    - time: 1.6166667
      value: {fileID: -3985852874091998616, guid: ad1d040f937b8984cbecac142ddb7300,
        type: 3}
    - time: 1.6333333
      value: {fileID: -4206720804621732788, guid: ad1d040f937b8984cbecac142ddb7300,
        type: 3}
    - time: 1.65
      value: {fileID: 4602115901706386970, guid: ad1d040f937b8984cbecac142ddb7300,
        type: 3}
    - time: 1.6666666
      value: {fileID: -8102003324282271877, guid: ad1d040f937b8984cbecac142ddb7300,
        type: 3}
    attribute: m_Sprite
    path: Appearance/Sprite
    classID: 212
    script: {fileID: 0}
  m_SampleRate: 60
  m_WrapMode: 0
  m_Bounds:
    m_Center: {x: 0, y: 0, z: 0}
    m_Extent: {x: 0, y: 0, z: 0}
  m_ClipBindingConstant:
    genericBindings:
    - serializedVersion: 2
      path: 3225995184
      attribute: 0
      script: {fileID: 0}
      typeID: 212
      customType: 23
      isPPtrCurve: 1
    pptrCurveMapping:
    - {fileID: -1536576864254105657, guid: ad1d040f937b8984cbecac142ddb7300, type: 3}
    - {fileID: -8349979391579755680, guid: ad1d040f937b8984cbecac142ddb7300, type: 3}
    - {fileID: 4992672540919242882, guid: ad1d040f937b8984cbecac142ddb7300, type: 3}
    - {fileID: 5758117114796064950, guid: ad1d040f937b8984cbecac142ddb7300, type: 3}
    - {fileID: -2311417617023986787, guid: ad1d040f937b8984cbecac142ddb7300, type: 3}
    - {fileID: 8206373584341156833, guid: ad1d040f937b8984cbecac142ddb7300, type: 3}
    - {fileID: -6590453716529877992, guid: ad1d040f937b8984cbecac142ddb7300, type: 3}
    - {fileID: 4687391980009695881, guid: ad1d040f937b8984cbecac142ddb7300, type: 3}
    - {fileID: -4251914062659933381, guid: ad1d040f937b8984cbecac142ddb7300, type: 3}
    - {fileID: -4457960738766989007, guid: ad1d040f937b8984cbecac142ddb7300, type: 3}
    - {fileID: -2565591833510898186, guid: ad1d040f937b8984cbecac142ddb7300, type: 3}
    - {fileID: -5395591736986953487, guid: ad1d040f937b8984cbecac142ddb7300, type: 3}
    - {fileID: 763860922261066122, guid: ad1d040f937b8984cbecac142ddb7300, type: 3}
    - {fileID: -2491886306122144933, guid: ad1d040f937b8984cbecac142ddb7300, type: 3}
    - {fileID: -4304713836901367419, guid: ad1d040f937b8984cbecac142ddb7300, type: 3}
    - {fileID: 7491183723906177659, guid: ad1d040f937b8984cbecac142ddb7300, type: 3}
    - {fileID: 928102865628096611, guid: ad1d040f937b8984cbecac142ddb7300, type: 3}
    - {fileID: 2868902095433425764, guid: ad1d040f937b8984cbecac142ddb7300, type: 3}
    - {fileID: 8323045372025827775, guid: ad1d040f937b8984cbecac142ddb7300, type: 3}
    - {fileID: 3487484676312723018, guid: ad1d040f937b8984cbecac142ddb7300, type: 3}
    - {fileID: 2028352135070445934, guid: ad1d040f937b8984cbecac142ddb7300, type: 3}
    - {fileID: -7867804316048326714, guid: ad1d040f937b8984cbecac142ddb7300, type: 3}
    - {fileID: 2531528936587804127, guid: ad1d040f937b8984cbecac142ddb7300, type: 3}
    - {fileID: -2233144919299030576, guid: ad1d040f937b8984cbecac142ddb7300, type: 3}
    - {fileID: 1540010323584956176, guid: ad1d040f937b8984cbecac142ddb7300, type: 3}
    - {fileID: -5818684052564617664, guid: ad1d040f937b8984cbecac142ddb7300, type: 3}
    - {fileID: 1027265490934521188, guid: ad1d040f937b8984cbecac142ddb7300, type: 3}
    - {fileID: 1769187180527609916, guid: ad1d040f937b8984cbecac142ddb7300, type: 3}
    - {fileID: -4836460969827232827, guid: ad1d040f937b8984cbecac142ddb7300, type: 3}
    - {fileID: -6849993608366286026, guid: ad1d040f937b8984cbecac142ddb7300, type: 3}
    - {fileID: -2081579781722226418, guid: ad1d040f937b8984cbecac142ddb7300, type: 3}
    - {fileID: -3788098194901177425, guid: ad1d040f937b8984cbecac142ddb7300, type: 3}
    - {fileID: 7884082161648748007, guid: ad1d040f937b8984cbecac142ddb7300, type: 3}
    - {fileID: -3651589686663878616, guid: ad1d040f937b8984cbecac142ddb7300, type: 3}
    - {fileID: 8638201179686166267, guid: ad1d040f937b8984cbecac142ddb7300, type: 3}
    - {fileID: -2763502773654132390, guid: ad1d040f937b8984cbecac142ddb7300, type: 3}
    - {fileID: -4917373101196027545, guid: ad1d040f937b8984cbecac142ddb7300, type: 3}
    - {fileID: 3300849461710355071, guid: ad1d040f937b8984cbecac142ddb7300, type: 3}
    - {fileID: -1735839112250966479, guid: ad1d040f937b8984cbecac142ddb7300, type: 3}
    - {fileID: -6436367564200688298, guid: ad1d040f937b8984cbecac142ddb7300, type: 3}
    - {fileID: -463832984154830718, guid: ad1d040f937b8984cbecac142ddb7300, type: 3}
    - {fileID: -317455197237778206, guid: ad1d040f937b8984cbecac142ddb7300, type: 3}
    - {fileID: -1536084400904763946, guid: ad1d040f937b8984cbecac142ddb7300, type: 3}
    - {fileID: 7798348306952965416, guid: ad1d040f937b8984cbecac142ddb7300, type: 3}
    - {fileID: -1376257105584381933, guid: ad1d040f937b8984cbecac142ddb7300, type: 3}
    - {fileID: 3702255940051908266, guid: ad1d040f937b8984cbecac142ddb7300, type: 3}
    - {fileID: -3120498791722017667, guid: ad1d040f937b8984cbecac142ddb7300, type: 3}
    - {fileID: -7584534754098632085, guid: ad1d040f937b8984cbecac142ddb7300, type: 3}
    - {fileID: 2230645490791975381, guid: ad1d040f937b8984cbecac142ddb7300, type: 3}
    - {fileID: 3947009726957474301, guid: ad1d040f937b8984cbecac142ddb7300, type: 3}
    - {fileID: -1614731743966086676, guid: ad1d040f937b8984cbecac142ddb7300, type: 3}
    - {fileID: 9149847445611348449, guid: ad1d040f937b8984cbecac142ddb7300, type: 3}
    - {fileID: 7113133359714327990, guid: ad1d040f937b8984cbecac142ddb7300, type: 3}
    - {fileID: 4930980319662283063, guid: ad1d040f937b8984cbecac142ddb7300, type: 3}
    - {fileID: -3069568792035871964, guid: ad1d040f937b8984cbecac142ddb7300, type: 3}
    - {fileID: 7878981436587209390, guid: ad1d040f937b8984cbecac142ddb7300, type: 3}
    - {fileID: -8021762582194679362, guid: ad1d040f937b8984cbecac142ddb7300, type: 3}
    - {fileID: 1763048661268639405, guid: ad1d040f937b8984cbecac142ddb7300, type: 3}
    - {fileID: -7559626768642729832, guid: ad1d040f937b8984cbecac142ddb7300, type: 3}
    - {fileID: 5098208663929958539, guid: ad1d040f937b8984cbecac142ddb7300, type: 3}
    - {fileID: 6972182840375177057, guid: ad1d040f937b8984cbecac142ddb7300, type: 3}
    - {fileID: 820173302540569007, guid: ad1d040f937b8984cbecac142ddb7300, type: 3}
    - {fileID: -5800585907070496159, guid: ad1d040f937b8984cbecac142ddb7300, type: 3}
    - {fileID: 7152646785158034740, guid: ad1d040f937b8984cbecac142ddb7300, type: 3}
    - {fileID: -1396700373012904214, guid: ad1d040f937b8984cbecac142ddb7300, type: 3}
    - {fileID: 6128841906736936351, guid: ad1d040f937b8984cbecac142ddb7300, type: 3}
    - {fileID: -1790396644341678608, guid: ad1d040f937b8984cbecac142ddb7300, type: 3}
    - {fileID: 5744863775309432465, guid: ad1d040f937b8984cbecac142ddb7300, type: 3}
    - {fileID: -3484428880423432894, guid: ad1d040f937b8984cbecac142ddb7300, type: 3}
    - {fileID: -931420011505553807, guid: ad1d040f937b8984cbecac142ddb7300, type: 3}
    - {fileID: 5566835953831219381, guid: ad1d040f937b8984cbecac142ddb7300, type: 3}
    - {fileID: 6509494429657373718, guid: ad1d040f937b8984cbecac142ddb7300, type: 3}
    - {fileID: -6253060255353059259, guid: ad1d040f937b8984cbecac142ddb7300, type: 3}
    - {fileID: -4451226456483231120, guid: ad1d040f937b8984cbecac142ddb7300, type: 3}
    - {fileID: -1515873494723179947, guid: ad1d040f937b8984cbecac142ddb7300, type: 3}
    - {fileID: 1014462059510638684, guid: ad1d040f937b8984cbecac142ddb7300, type: 3}
    - {fileID: -6000597321337358333, guid: ad1d040f937b8984cbecac142ddb7300, type: 3}
    - {fileID: -5134041248031811181, guid: ad1d040f937b8984cbecac142ddb7300, type: 3}
    - {fileID: -6708828866431440295, guid: ad1d040f937b8984cbecac142ddb7300, type: 3}
    - {fileID: -4494547935845096070, guid: ad1d040f937b8984cbecac142ddb7300, type: 3}
    - {fileID: 4793801539703744367, guid: ad1d040f937b8984cbecac142ddb7300, type: 3}
    - {fileID: -260723140416701129, guid: ad1d040f937b8984cbecac142ddb7300, type: 3}
    - {fileID: -4220534113734516875, guid: ad1d040f937b8984cbecac142ddb7300, type: 3}
    - {fileID: -4138078387662597003, guid: ad1d040f937b8984cbecac142ddb7300, type: 3}
    - {fileID: -2963161722775915504, guid: ad1d040f937b8984cbecac142ddb7300, type: 3}
    - {fileID: -4498623733859934575, guid: ad1d040f937b8984cbecac142ddb7300, type: 3}
    - {fileID: -1811281927267532902, guid: ad1d040f937b8984cbecac142ddb7300, type: 3}
    - {fileID: -6699556920225872904, guid: ad1d040f937b8984cbecac142ddb7300, type: 3}
    - {fileID: -824414076109246603, guid: ad1d040f937b8984cbecac142ddb7300, type: 3}
    - {fileID: -780921418207060580, guid: ad1d040f937b8984cbecac142ddb7300, type: 3}
    - {fileID: 697473421054986616, guid: ad1d040f937b8984cbecac142ddb7300, type: 3}
    - {fileID: 5859413171882676568, guid: ad1d040f937b8984cbecac142ddb7300, type: 3}
    - {fileID: 3428137845319142651, guid: ad1d040f937b8984cbecac142ddb7300, type: 3}
    - {fileID: -2725926805485182438, guid: ad1d040f937b8984cbecac142ddb7300, type: 3}
    - {fileID: -2221380797379882735, guid: ad1d040f937b8984cbecac142ddb7300, type: 3}
    - {fileID: -3608764419350047599, guid: ad1d040f937b8984cbecac142ddb7300, type: 3}
    - {fileID: 4359264058054050698, guid: ad1d040f937b8984cbecac142ddb7300, type: 3}
    - {fileID: -3985852874091998616, guid: ad1d040f937b8984cbecac142ddb7300, type: 3}
    - {fileID: -4206720804621732788, guid: ad1d040f937b8984cbecac142ddb7300, type: 3}
    - {fileID: 4602115901706386970, guid: ad1d040f937b8984cbecac142ddb7300, type: 3}
    - {fileID: -8102003324282271877, guid: ad1d040f937b8984cbecac142ddb7300, type: 3}
  m_AnimationClipSettings:
    serializedVersion: 2
    m_AdditiveReferencePoseClip: {fileID: 0}
    m_AdditiveReferencePoseTime: 0
    m_StartTime: 0
    m_StopTime: 1.6833333
    m_OrientationOffsetY: 0
    m_Level: 0
    m_CycleOffset: 0
    m_HasAdditiveReferencePose: 0
    m_LoopTime: 1
    m_LoopBlend: 0
    m_LoopBlendOrientation: 0
    m_LoopBlendPositionY: 0
    m_LoopBlendPositionXZ: 0
    m_KeepOriginalOrientation: 0
    m_KeepOriginalPositionY: 1
    m_KeepOriginalPositionXZ: 0
    m_HeightFromFeet: 0
    m_Mirror: 0
  m_EditorCurves: []
  m_EulerEditorCurves: []
  m_HasGenericRootTransform: 0
  m_HasMotionFloatCurves: 0
  m_Events: []
